<svg viewBox="0 0 76 76">
  <path d="M38 76C17 76 0 59 0 38S17 0 38 0s38 17 38 38-17 38-38 38zm0-74C18.1 2 2 18.1 2 38s16.1 36 36 36 36-16.1 36-36S57.9 2 38 2z"/>
  <path d="M19.8 47.9c0-8.6 11.8-9.8 11.8-15.4 0-2.4-1.8-4-4.3-4-2.2 0-3.6 1.4-4.2 2.2-.5.5-1 .7-1.6.2l-.6-.5c-.6-.4-.7-1-.3-1.5.9-1.3 3.1-3.6 7-3.6 4.4 0 7.6 2.8 7.6 6.9 0 7.9-11.5 9.1-11.6 14.6h10.8c.7 0 1.1.4 1.1 1.1v.7c0 .7-.4 1.1-1.1 1.1H21c-.7 0-1.2-.4-1.2-1.1v-.7zm19.6 0c0-8.6 11.8-9.8 11.8-15.4 0-2.4-1.8-4-4.3-4-2.2 0-3.6 1.4-4.2 2.2-.5.5-1 .7-1.6.2l-.6-.5c-.6-.4-.7-1-.3-1.5.9-1.3 3.1-3.6 7-3.6 4.4 0 7.6 2.8 7.6 6.9 0 7.9-11.5 9.1-11.6 14.6H54c.7 0 1.1.4 1.1 1.1v.7c0 .7-.4 1.1-1.1 1.1H40.6c-.7 0-1.2-.4-1.2-1.1v-.7z"/>
</svg>
